^C:\USERS\OI.AGANOVSKII\SOURCE\REPOS\MATAMOS\MATAMOS\DEBUG\DLLMAIN.OBJ|C:\USERS\OI.AGANOVSKII\SOURCE\REPOS\MATAMOS\MATAMOS\DEBUG\EVENT.OBJ|C:\USERS\OI.AGANOVSKII\SOURCE\REPOS\MATAMOS\MATAMOS\DEBUG\IMPGUIUTIL.OBJ|C:\USERS\OI.AGANOVSKII\SOURCE\REPOS\MATAMOS\MATAMOS\DEBUG\UTIL.OBJ|C:\USERS\OI.AGANOVSKII\SOURCE\REPOS\MATAMOS\MATAMOS\DEBUG\WINDOW.OBJ
C:\USERS\OI.AGANOVSKII\SOURCE\REPOS\MATAMOS\DEBUG\MATAMOS.ILK
C:\USERS\OI.AGANOVSKII\SOURCE\REPOS\MATAMOS\DEBUG\MATAMOS.DLL
C:\USERS\OI.AGANOVSKII\SOURCE\REPOS\MATAMOS\DEBUG\MATAMOS.PDB
