^C:\USERS\OI.AGANOVSKII\SOURCE\REPOS\MATAMOS\MATAMOS\DLLMAIN.CPP
/c /I"C:\PROGRAM FILES\JAVA\JDK1.8.0_211\INCLUDE\WIN32" /I"C:\PROGRAM FILES\JAVA\JDK1.8.0_211\INCLUDE" /Zi /nologo /W3 /WX- /diagnostics:classic /sdl /O2 /Oi /Oy- /GL /D WIN32 /D NDEBUG /D MATAMOS_EXPORTS /D _WINDOWS /D _USRDLL /D _WINDLL /D _UNICODE /D UNICODE /Gm- /EHsc /MD /GS /Gy /fp:precise /permissive- /Zc:wchar_t /Zc:forScope /Zc:inline /Fo"RELEASE\\" /Fd"RELEASE\VC141.PDB" /Gd /TP /analyze- /FC C:\USERS\OI.AGANOVSKII\SOURCE\REPOS\MATAMOS\MATAMOS\DLLMAIN.CPP
^C:\USERS\OI.AGANOVSKII\SOURCE\REPOS\MATAMOS\MATAMOS\EVENT.CPP
/c /I"C:\PROGRAM FILES\JAVA\JDK1.8.0_211\INCLUDE\WIN32" /I"C:\PROGRAM FILES\JAVA\JDK1.8.0_211\INCLUDE" /Zi /nologo /W3 /WX- /diagnostics:classic /sdl /O2 /Oi /Oy- /GL /D WIN32 /D NDEBUG /D MATAMOS_EXPORTS /D _WINDOWS /D _USRDLL /D _WINDLL /D _UNICODE /D UNICODE /Gm- /EHsc /MD /GS /Gy /fp:precise /permissive- /Zc:wchar_t /Zc:forScope /Zc:inline /Fo"RELEASE\\" /Fd"RELEASE\VC141.PDB" /Gd /TP /analyze- /FC C:\USERS\OI.AGANOVSKII\SOURCE\REPOS\MATAMOS\MATAMOS\EVENT.CPP
^C:\USERS\OI.AGANOVSKII\SOURCE\REPOS\MATAMOS\MATAMOS\IMPGUIUTIL.CPP
/c /I"C:\PROGRAM FILES\JAVA\JDK1.8.0_211\INCLUDE\WIN32" /I"C:\PROGRAM FILES\JAVA\JDK1.8.0_211\INCLUDE" /Zi /nologo /W3 /WX- /diagnostics:classic /sdl /O2 /Oi /Oy- /GL /D WIN32 /D NDEBUG /D MATAMOS_EXPORTS /D _WINDOWS /D _USRDLL /D _WINDLL /D _UNICODE /D UNICODE /Gm- /EHsc /MD /GS /Gy /fp:precise /permissive- /Zc:wchar_t /Zc:forScope /Zc:inline /Fo"RELEASE\\" /Fd"RELEASE\VC141.PDB" /Gd /TP /analyze- /FC C:\USERS\OI.AGANOVSKII\SOURCE\REPOS\MATAMOS\MATAMOS\IMPGUIUTIL.CPP
^C:\USERS\OI.AGANOVSKII\SOURCE\REPOS\MATAMOS\MATAMOS\UTIL.CPP
/c /I"C:\PROGRAM FILES\JAVA\JDK1.8.0_211\INCLUDE\WIN32" /I"C:\PROGRAM FILES\JAVA\JDK1.8.0_211\INCLUDE" /Zi /nologo /W3 /WX- /diagnostics:classic /sdl /O2 /Oi /Oy- /GL /D WIN32 /D NDEBUG /D MATAMOS_EXPORTS /D _WINDOWS /D _USRDLL /D _WINDLL /D _UNICODE /D UNICODE /Gm- /EHsc /MD /GS /Gy /fp:precise /permissive- /Zc:wchar_t /Zc:forScope /Zc:inline /Fo"RELEASE\\" /Fd"RELEASE\VC141.PDB" /Gd /TP /analyze- /FC C:\USERS\OI.AGANOVSKII\SOURCE\REPOS\MATAMOS\MATAMOS\UTIL.CPP
^C:\USERS\OI.AGANOVSKII\SOURCE\REPOS\MATAMOS\MATAMOS\WINDOW.CPP
/c /I"C:\PROGRAM FILES\JAVA\JDK1.8.0_211\INCLUDE\WIN32" /I"C:\PROGRAM FILES\JAVA\JDK1.8.0_211\INCLUDE" /Zi /nologo /W3 /WX- /diagnostics:classic /sdl /O2 /Oi /Oy- /GL /D WIN32 /D NDEBUG /D MATAMOS_EXPORTS /D _WINDOWS /D _USRDLL /D _WINDLL /D _UNICODE /D UNICODE /Gm- /EHsc /MD /GS /Gy /fp:precise /permissive- /Zc:wchar_t /Zc:forScope /Zc:inline /Fo"RELEASE\\" /Fd"RELEASE\VC141.PDB" /Gd /TP /analyze- /FC C:\USERS\OI.AGANOVSKII\SOURCE\REPOS\MATAMOS\MATAMOS\WINDOW.CPP
