^C:\USERS\OI.AGANOVSKII\SOURCE\REPOS\MATAMOS\MATAMOS\DLLMAIN.CPP
/c /I"C:\PROGRAM FILES\JAVA\JDK1.8.0_211\INCLUDE\WIN32" /I"C:\PROGRAM FILES\JAVA\JDK1.8.0_211\INCLUDE" /ZI /JMC /nologo /W3 /WX- /diagnostics:classic /sdl /Od /D _DEBUG /D MATAMOS_EXPORTS /D _WINDOWS /D _USRDLL /D _WINDLL /D _UNICODE /D UNICODE /Gm- /EHsc /RTC1 /MDd /GS /fp:precise /permissive- /Zc:wchar_t /Zc:forScope /Zc:inline /Fo"X64\DEBUG\\" /Fd"X64\DEBUG\VC141.PDB" /Gd /TP /FC C:\USERS\OI.AGANOVSKII\SOURCE\REPOS\MATAMOS\MATAMOS\DLLMAIN.CPP
^C:\USERS\OI.AGANOVSKII\SOURCE\REPOS\MATAMOS\MATAMOS\EVENT.CPP
/c /I"C:\PROGRAM FILES\JAVA\JDK1.8.0_211\INCLUDE\WIN32" /I"C:\PROGRAM FILES\JAVA\JDK1.8.0_211\INCLUDE" /ZI /JMC /nologo /W3 /WX- /diagnostics:classic /sdl /Od /D _DEBUG /D MATAMOS_EXPORTS /D _WINDOWS /D _USRDLL /D _WINDLL /D _UNICODE /D UNICODE /Gm- /EHsc /RTC1 /MDd /GS /fp:precise /permissive- /Zc:wchar_t /Zc:forScope /Zc:inline /Fo"X64\DEBUG\\" /Fd"X64\DEBUG\VC141.PDB" /Gd /TP /FC C:\USERS\OI.AGANOVSKII\SOURCE\REPOS\MATAMOS\MATAMOS\EVENT.CPP
^C:\USERS\OI.AGANOVSKII\SOURCE\REPOS\MATAMOS\MATAMOS\IMPGUIUTIL.CPP
/c /I"C:\PROGRAM FILES\JAVA\JDK1.8.0_211\INCLUDE\WIN32" /I"C:\PROGRAM FILES\JAVA\JDK1.8.0_211\INCLUDE" /ZI /JMC /nologo /W3 /WX- /diagnostics:classic /sdl /Od /D _DEBUG /D MATAMOS_EXPORTS /D _WINDOWS /D _USRDLL /D _WINDLL /D _UNICODE /D UNICODE /Gm- /EHsc /RTC1 /MDd /GS /fp:precise /permissive- /Zc:wchar_t /Zc:forScope /Zc:inline /Fo"X64\DEBUG\\" /Fd"X64\DEBUG\VC141.PDB" /Gd /TP /FC C:\USERS\OI.AGANOVSKII\SOURCE\REPOS\MATAMOS\MATAMOS\IMPGUIUTIL.CPP
^C:\USERS\OI.AGANOVSKII\SOURCE\REPOS\MATAMOS\MATAMOS\UTIL.CPP
/c /I"C:\PROGRAM FILES\JAVA\JDK1.8.0_211\INCLUDE\WIN32" /I"C:\PROGRAM FILES\JAVA\JDK1.8.0_211\INCLUDE" /ZI /JMC /nologo /W3 /WX- /diagnostics:classic /sdl /Od /D _DEBUG /D MATAMOS_EXPORTS /D _WINDOWS /D _USRDLL /D _WINDLL /D _UNICODE /D UNICODE /Gm- /EHsc /RTC1 /MDd /GS /fp:precise /permissive- /Zc:wchar_t /Zc:forScope /Zc:inline /Fo"X64\DEBUG\\" /Fd"X64\DEBUG\VC141.PDB" /Gd /TP /FC C:\USERS\OI.AGANOVSKII\SOURCE\REPOS\MATAMOS\MATAMOS\UTIL.CPP
^C:\USERS\OI.AGANOVSKII\SOURCE\REPOS\MATAMOS\MATAMOS\WINDOW.CPP
/c /I"C:\PROGRAM FILES\JAVA\JDK1.8.0_211\INCLUDE\WIN32" /I"C:\PROGRAM FILES\JAVA\JDK1.8.0_211\INCLUDE" /ZI /JMC /nologo /W3 /WX- /diagnostics:classic /sdl /Od /D _DEBUG /D MATAMOS_EXPORTS /D _WINDOWS /D _USRDLL /D _WINDLL /D _UNICODE /D UNICODE /Gm- /EHsc /RTC1 /MDd /GS /fp:precise /permissive- /Zc:wchar_t /Zc:forScope /Zc:inline /Fo"X64\DEBUG\\" /Fd"X64\DEBUG\VC141.PDB" /Gd /TP /FC C:\USERS\OI.AGANOVSKII\SOURCE\REPOS\MATAMOS\MATAMOS\WINDOW.CPP
